\relax 
\providecommand\hyper@newdestlabel[2]{}
\providecommand\HyperFirstAtBeginDocument{\AtBeginDocument}
\HyperFirstAtBeginDocument{\ifx\hyper@anchor\@undefined
\global\let\oldcontentsline\contentsline
\gdef\contentsline#1#2#3#4{\oldcontentsline{#1}{#2}{#3}}
\global\let\oldnewlabel\newlabel
\gdef\newlabel#1#2{\newlabelxx{#1}#2}
\gdef\newlabelxx#1#2#3#4#5#6{\oldnewlabel{#1}{{#2}{#3}}}
\AtEndDocument{\ifx\hyper@anchor\@undefined
\let\contentsline\oldcontentsline
\let\newlabel\oldnewlabel
\fi}
\fi}
\global\let\hyper@last\relax 
\gdef\HyperFirstAtBeginDocument#1{#1}
\providecommand\HyField@AuxAddToFields[1]{}
\providecommand\HyField@AuxAddToCoFields[2]{}
\@writefile{toc}{\contentsline {chapter}{\numberline {1}Harlekin Game Engine}{1}{chapter.1}}
\@writefile{lof}{\addvspace {10\p@ }}
\@writefile{lot}{\addvspace {10\p@ }}
\newlabel{index}{{1}{1}{Harlekin Game Engine}{chapter.1}{}}
\@writefile{toc}{\contentsline {section}{\numberline {1.1}Content}{1}{section.1.1}}
\newlabel{index_HarlekinContent}{{1.1}{1}{Content}{section.1.1}{}}
\@writefile{toc}{\contentsline {section}{\numberline {1.2}Foreword}{1}{section.1.2}}
\newlabel{index_HarlekinForeword}{{1.2}{1}{Foreword}{section.1.2}{}}
\@writefile{toc}{\contentsline {section}{\numberline {1.3}3rd Party Lib and Licensing Information}{1}{section.1.3}}
\newlabel{index_HarlekinExtLibs}{{1.3}{1}{3rd Party Lib and Licensing Information}{section.1.3}{}}
\@writefile{toc}{\contentsline {section}{\numberline {1.4}Motivation}{2}{section.1.4}}
\newlabel{index_HarlekinMotivation}{{1.4}{2}{Motivation}{section.1.4}{}}
\@writefile{toc}{\contentsline {section}{\numberline {1.5}Architecture Overview}{2}{section.1.5}}
\newlabel{index_HarlekinArchitecture}{{1.5}{2}{Architecture Overview}{section.1.5}{}}
\@writefile{toc}{\contentsline {section}{\numberline {1.6}Getting Started}{2}{section.1.6}}
\newlabel{index_GettingStarted}{{1.6}{2}{Getting Started}{section.1.6}{}}
\@writefile{toc}{\contentsline {section}{\numberline {1.7}Foundation Layer Subsystems}{2}{section.1.7}}
\newlabel{index_FoundationLayer}{{1.7}{2}{Foundation Layer Subsystems}{section.1.7}{}}
\@writefile{toc}{\contentsline {section}{\numberline {1.8}Render Layer Subsystems}{2}{section.1.8}}
\newlabel{index_RenderLayer}{{1.8}{2}{Render Layer Subsystems}{section.1.8}{}}
\@writefile{toc}{\contentsline {section}{\numberline {1.9}Application Layer Subsystems}{2}{section.1.9}}
\newlabel{index_ApplicationLayer}{{1.9}{2}{Application Layer Subsystems}{section.1.9}{}}
\@writefile{toc}{\contentsline {section}{\numberline {1.10}How To Compile}{2}{section.1.10}}
\newlabel{index_HarlekinCompiling}{{1.10}{2}{How To Compile}{section.1.10}{}}
\@writefile{toc}{\contentsline {chapter}{\numberline {2}Namespace Index}{3}{chapter.2}}
\@writefile{lof}{\addvspace {10\p@ }}
\@writefile{lot}{\addvspace {10\p@ }}
\@writefile{toc}{\contentsline {section}{\numberline {2.1}Namespace List}{3}{section.2.1}}
\@writefile{toc}{\contentsline {chapter}{\numberline {3}Hierarchical Index}{5}{chapter.3}}
\@writefile{lof}{\addvspace {10\p@ }}
\@writefile{lot}{\addvspace {10\p@ }}
\@writefile{toc}{\contentsline {section}{\numberline {3.1}Class Hierarchy}{5}{section.3.1}}
\@writefile{toc}{\contentsline {chapter}{\numberline {4}Data Structure Index}{7}{chapter.4}}
\@writefile{lof}{\addvspace {10\p@ }}
\@writefile{lot}{\addvspace {10\p@ }}
\@writefile{toc}{\contentsline {section}{\numberline {4.1}Data Structures}{7}{section.4.1}}
\@writefile{toc}{\contentsline {chapter}{\numberline {5}File Index}{9}{chapter.5}}
\@writefile{lof}{\addvspace {10\p@ }}
\@writefile{lot}{\addvspace {10\p@ }}
\@writefile{toc}{\contentsline {section}{\numberline {5.1}File List}{9}{section.5.1}}
\@writefile{toc}{\contentsline {chapter}{\numberline {6}Namespace Documentation}{11}{chapter.6}}
\@writefile{lof}{\addvspace {10\p@ }}
\@writefile{lot}{\addvspace {10\p@ }}
\@writefile{toc}{\contentsline {section}{\numberline {6.1}Harlekin Namespace Reference}{11}{section.6.1}}
\newlabel{namespace_harlekin}{{6.1}{11}{Harlekin Namespace Reference}{section.6.1}{}}
\@writefile{toc}{\contentsline {section}{\numberline {6.2}Harlekin\discretionary {-}{}{}:\discretionary {-}{}{}:Core Namespace Reference}{11}{section.6.2}}
\newlabel{namespace_harlekin_1_1_core}{{6.2}{11}{Harlekin\-:\-:Core Namespace Reference}{section.6.2}{}}
\@writefile{toc}{\contentsline {chapter}{\numberline {7}Data Structure Documentation}{13}{chapter.7}}
\@writefile{lof}{\addvspace {10\p@ }}
\@writefile{lot}{\addvspace {10\p@ }}
\@writefile{toc}{\contentsline {section}{\numberline {7.1}Harlekin\discretionary {-}{}{}:\discretionary {-}{}{}:Core\discretionary {-}{}{}:\discretionary {-}{}{}:Application Class Reference}{13}{section.7.1}}
\newlabel{class_harlekin_1_1_core_1_1_application}{{7.1}{13}{Harlekin\-:\-:Core\-:\-:Application Class Reference}{section.7.1}{}}
\@writefile{toc}{\contentsline {subsection}{\numberline {7.1.1}Member Function Documentation}{13}{subsection.7.1.1}}
\@writefile{toc}{\contentsline {subsubsection}{\numberline {7.1.1.1}run}{13}{subsubsection.7.1.1.1}}
\newlabel{class_harlekin_1_1_core_1_1_application_ae073cc68c1fe75b1fb6623c1f9692b32}{{7.1.1.1}{13}{run}{subsubsection.7.1.1.1}{}}
\@writefile{toc}{\contentsline {section}{\numberline {7.2}Harlekin\discretionary {-}{}{}:\discretionary {-}{}{}:Core\discretionary {-}{}{}:\discretionary {-}{}{}:Game\discretionary {-}{}{}App Class Reference}{13}{section.7.2}}
\newlabel{class_harlekin_1_1_core_1_1_game_app}{{7.2}{13}{Harlekin\-:\-:Core\-:\-:Game\-App Class Reference}{section.7.2}{}}
\@writefile{toc}{\contentsline {subsection}{\numberline {7.2.1}Constructor \& Destructor Documentation}{14}{subsection.7.2.1}}
\@writefile{toc}{\contentsline {subsubsection}{\numberline {7.2.1.1}Game\discretionary {-}{}{}App}{14}{subsubsection.7.2.1.1}}
\newlabel{class_harlekin_1_1_core_1_1_game_app_a874c0fa472a7c5c66dc6ff7a72ff75ea}{{7.2.1.1}{14}{Game\-App}{subsubsection.7.2.1.1}{}}
\@writefile{toc}{\contentsline {subsubsection}{\numberline {7.2.1.2}$\sim $\discretionary {-}{}{}Game\discretionary {-}{}{}App}{14}{subsubsection.7.2.1.2}}
\newlabel{class_harlekin_1_1_core_1_1_game_app_a976fd752d6fc52564c9fb6ae4c5a6bb5}{{7.2.1.2}{14}{$\sim $\-Game\-App}{subsubsection.7.2.1.2}{}}
\@writefile{toc}{\contentsline {chapter}{\numberline {8}File Documentation}{15}{chapter.8}}
\@writefile{lof}{\addvspace {10\p@ }}
\@writefile{lot}{\addvspace {10\p@ }}
\@writefile{toc}{\contentsline {section}{\numberline {8.1}/mnt/workspace/\discretionary {-}{}{}C++/\discretionary {-}{}{}Engines/harlekin/code/core/\discretionary {-}{}{}Game\discretionary {-}{}{}App.cpp File Reference}{15}{section.8.1}}
\newlabel{_game_app_8cpp}{{8.1}{15}{/mnt/workspace/\-C++/\-Engines/harlekin/code/core/\-Game\-App.cpp File Reference}{section.8.1}{}}
\@writefile{toc}{\contentsline {section}{\numberline {8.2}/mnt/workspace/\discretionary {-}{}{}C++/\discretionary {-}{}{}Engines/harlekin/code/include/harlekin/core/\discretionary {-}{}{}Application.hpp File Reference}{15}{section.8.2}}
\newlabel{_application_8hpp}{{8.2}{15}{/mnt/workspace/\-C++/\-Engines/harlekin/code/include/harlekin/core/\-Application.hpp File Reference}{section.8.2}{}}
\@writefile{toc}{\contentsline {subsection}{\numberline {8.2.1}Macro Definition Documentation}{15}{subsection.8.2.1}}
\@writefile{toc}{\contentsline {subsubsection}{\numberline {8.2.1.1}H\discretionary {-}{}{}A\discretionary {-}{}{}R\discretionary {-}{}{}L\discretionary {-}{}{}E\discretionary {-}{}{}K\discretionary {-}{}{}I\discretionary {-}{}{}N\discretionary {-}{}{}\_\discretionary {-}{}{}\discretionary {-}{}{}C\discretionary {-}{}{}O\discretionary {-}{}{}R\discretionary {-}{}{}E\discretionary {-}{}{}\_\discretionary {-}{}{}\discretionary {-}{}{}A\discretionary {-}{}{}P\discretionary {-}{}{}P\discretionary {-}{}{}L\discretionary {-}{}{}I\discretionary {-}{}{}C\discretionary {-}{}{}A\discretionary {-}{}{}T\discretionary {-}{}{}I\discretionary {-}{}{}O\discretionary {-}{}{}N\discretionary {-}{}{}\_\discretionary {-}{}{}\discretionary {-}{}{}H\discretionary {-}{}{}P\discretionary {-}{}{}P}{15}{subsubsection.8.2.1.1}}
\newlabel{_application_8hpp_a3e527c919ebc10a16d5b2a788c1bf00b}{{8.2.1.1}{15}{H\-A\-R\-L\-E\-K\-I\-N\-\_\-\-C\-O\-R\-E\-\_\-\-A\-P\-P\-L\-I\-C\-A\-T\-I\-O\-N\-\_\-\-H\-P\-P}{subsubsection.8.2.1.1}{}}
\@writefile{toc}{\contentsline {section}{\numberline {8.3}/mnt/workspace/\discretionary {-}{}{}C++/\discretionary {-}{}{}Engines/harlekin/code/include/harlekin/core/\discretionary {-}{}{}Game\discretionary {-}{}{}App.hpp File Reference}{15}{section.8.3}}
\newlabel{_game_app_8hpp}{{8.3}{15}{/mnt/workspace/\-C++/\-Engines/harlekin/code/include/harlekin/core/\-Game\-App.hpp File Reference}{section.8.3}{}}
\@writefile{toc}{\contentsline {subsection}{\numberline {8.3.1}Macro Definition Documentation}{16}{subsection.8.3.1}}
\@writefile{toc}{\contentsline {subsubsection}{\numberline {8.3.1.1}H\discretionary {-}{}{}A\discretionary {-}{}{}R\discretionary {-}{}{}L\discretionary {-}{}{}E\discretionary {-}{}{}K\discretionary {-}{}{}I\discretionary {-}{}{}N\discretionary {-}{}{}\_\discretionary {-}{}{}\discretionary {-}{}{}C\discretionary {-}{}{}O\discretionary {-}{}{}R\discretionary {-}{}{}E\discretionary {-}{}{}\_\discretionary {-}{}{}\discretionary {-}{}{}G\discretionary {-}{}{}A\discretionary {-}{}{}M\discretionary {-}{}{}E\discretionary {-}{}{}A\discretionary {-}{}{}P\discretionary {-}{}{}P\discretionary {-}{}{}\_\discretionary {-}{}{}\discretionary {-}{}{}H\discretionary {-}{}{}P\discretionary {-}{}{}P}{16}{subsubsection.8.3.1.1}}
\newlabel{_game_app_8hpp_a1d557ad078513a1943d4e394fe013be7}{{8.3.1.1}{16}{H\-A\-R\-L\-E\-K\-I\-N\-\_\-\-C\-O\-R\-E\-\_\-\-G\-A\-M\-E\-A\-P\-P\-\_\-\-H\-P\-P}{subsubsection.8.3.1.1}{}}
\@writefile{toc}{\contentsline {section}{\numberline {8.4}/mnt/workspace/\discretionary {-}{}{}C++/\discretionary {-}{}{}Engines/harlekin/doc/harlekin/mainpage.dox File Reference}{16}{section.8.4}}
\newlabel{mainpage_8dox}{{8.4}{16}{/mnt/workspace/\-C++/\-Engines/harlekin/doc/harlekin/mainpage.dox File Reference}{section.8.4}{}}
\@writefile{toc}{\contentsline {part}{Index}{17}{section*.13}}
